/ChangLab5-hd2/hannah/data/test/tomograms/TS16_unblur_orig__bin4.hdf,	/ChangLab5-hd2/hannah/data/test/segmentations/TS16_unblur_orig__bin4.pdb
# # # # # # # # # # PARALLEL SEGMENTS, METHOD 2 # # # # # # # # # #
R_OUT: 22.17
R_IN:   5.66
--- 843.537878036499 seconds ---
