# # # # # # # # # # METHOD 1: SEARCH # # # # # # # # # #
bin=None, mask=None
--- 23.741258144378662 seconds ---
bin=2, mask=None
--- 2.970456600189209 seconds ---
bin=None, mask=(bin=2)
--- 1.6028523445129395 seconds ---
# # # # # # # # # # METHOD 2: CALCULATION # # # # # # # # # #
--- 1.5251505374908447 seconds ---
# # # # # # # # # # COMPARING METHODS # # # # # # # # # #
# voxels in method 1:			2031
# voxels in method 2:			2989
difference in method 1 and method 2:	958
# voxels in method 1 not in method 2:	0
# voxels in method 2 not in method 1:	958
# # # # # # # # # # HYPERPARAMETER GRID SEARCH # # # # # # # # # #
AxisF.	Theta	Phi	RFactor	: Time (s)	Vox (1 not 2)	Vox (2 not 1)0.8	180	 90	1.000	: 1.039		 95		800
0.8	180	 90	1.200	: 1.034		 95		800
0.8	180	 90	1.500	: 1.376		 26		800
0.8	180	 90	2.000	: 1.961		  1		800
0.8	180	180	1.000	: 1.052		 95		800
0.8	180	180	1.200	: 1.029		 95		800
0.8	180	180	1.500	: 1.400		 26		800
0.8	180	180	2.000	: 1.968		  1		800
0.8	240	 90	1.000	: 1.383		 87		802
0.8	240	 90	1.200	: 1.384		 87		802
0.8	240	 90	1.500	: 1.797		 26		802
0.8	240	 90	2.000	: 2.494		  1		802
0.8	240	180	1.000	: 1.369		 87		802
0.8	240	180	1.200	: 1.377		 87		802
0.8	240	180	1.500	: 1.816		 26		802
0.8	240	180	2.000	: 2.559		  1		802
0.8	360	 90	1.000	: 1.944		 81		810
0.8	360	 90	1.200	: 1.936		 81		810
0.8	360	 90	1.500	: 2.616		 22		810
0.8	360	 90	2.000	: 3.815		  0		810
0.8	360	180	1.000	: 1.995		 81		810
0.8	360	180	1.200	: 1.937		 81		810
0.8	360	180	1.500	: 2.454		 22		810
0.8	360	180	2.000	: 3.606		  0		810
1.0	180	 90	1.000	: 1.138		 14		868
1.0	180	 90	1.200	: 1.109		 14		868
1.0	180	 90	1.500	: 1.466		  2		868
1.0	180	 90	2.000	: 2.065		  0		868
1.0	180	180	1.000	: 1.118		 14		868
1.0	180	180	1.200	: 1.118		 14		868
1.0	180	180	1.500	: 1.434		  2		868
1.0	180	180	2.000	: 2.061		  0		868
1.0	240	 90	1.000	: 1.442		 14		883
1.0	240	 90	1.200	: 1.399		 14		883
1.0	240	 90	1.500	: 1.864		  2		883
1.0	240	 90	2.000	: 2.662		  0		883
1.0	240	180	1.000	: 1.461		 14		883
1.0	240	180	1.200	: 1.461		 14		883
1.0	240	180	1.500	: 1.897		  2		883
1.0	240	180	2.000	: 2.800		  0		883
1.0	360	 90	1.000	: 2.031		 14		881
1.0	360	 90	1.200	: 2.054		 14		881
1.0	360	 90	1.500	: 2.672		  2		881
1.0	360	 90	2.000	: 3.770		  0		881
1.0	360	180	1.000	: 2.113		 14		881
1.0	360	180	1.200	: 2.068		 14		881
1.0	360	180	1.500	: 2.719		  2		881
1.0	360	180	2.000	: 3.937		  0		881
2.0	180	 90	1.000	: 1.344		  0		958
2.0	180	 90	1.200	: 1.339		  0		958
2.0	180	 90	1.500	: 1.731		  0		958
2.0	180	 90	2.000	: 2.455		  0		958
2.0	180	180	1.000	: 1.336		  0		958
2.0	180	180	1.200	: 1.335		  0		958
2.0	180	180	1.500	: 1.747		  0		958
2.0	180	180	2.000	: 2.461		  0		958
2.0	240	 90	1.000	: 1.692		  0		971
2.0	240	 90	1.200	: 1.740		  0		971
2.0	240	 90	1.500	: 2.226		  0		971
2.0	240	 90	2.000	: 3.261		  0		971
2.0	240	180	1.000	: 1.721		  0		971
2.0	240	180	1.200	: 1.746		  0		971
2.0	240	180	1.500	: 2.271		  0		971
2.0	240	180	2.000	: 3.246		  0		971
2.0	360	 90	1.000	: 2.489		  0		971
2.0	360	 90	1.200	: 2.490		  0		971
2.0	360	 90	1.500	: 3.304		  0		971
2.0	360	 90	2.000	: 4.633		  0		971
2.0	360	180	1.000	: 2.465		  0		971
2.0	360	180	1.200	: 2.427		  0		971
2.0	360	180	1.500	: 3.161		  0		971
2.0	360	180	2.000	: 4.508		  0		971
